%!PS-Adobe-3.0 EPSF-3.0
%%Title: resultaten/theologie.eps
%%Creator: matplotlib version 3.0.1, http://matplotlib.org/
%%CreationDate: Sun Mar 17 16:31:07 2019
%%Orientation: portrait
%%BoundingBox: -51 145 663 646
%%EndComments
%%BeginProlog
/mpldict 8 dict def
mpldict begin
/m { moveto } bind def
/l { lineto } bind def
/r { rlineto } bind def
/c { curveto } bind def
/cl { closepath } bind def
/box {
m
1 index 0 r
0 exch r
neg 0 r
cl
} bind def
/clipbox {
box
clip
newpath
} bind def
%!PS-Adobe-3.0 Resource-Font
%%Title: DejaVu Sans
%%Copyright: Copyright (c) 2003 by Bitstream, Inc. All Rights Reserved. Copyright (c) 2006 by Tavmjong Bah. All Rights Reserved. DejaVu changes are in public domain 
%%Creator: Converted from TrueType to type 3 by PPR
25 dict begin
/_d{bind def}bind def
/_m{moveto}_d
/_l{lineto}_d
/_cl{closepath eofill}_d
/_c{curveto}_d
/_sc{7 -1 roll{setcachedevice}{pop pop pop pop pop pop}ifelse}_d
/_e{exec}_d
/FontName /DejaVuSans def
/PaintType 0 def
/FontMatrix[.001 0 0 .001 0 0]def
/FontBBox[-1021 -463 1793 1232]def
/FontType 3 def
/Encoding [ /period /zero /one /two /three /four /five /six /seven /eight /nine /a /c /e /f /g /h /i /j /l /n /o /p /r /s /t /u /w ] def
/FontInfo 10 dict dup begin
/FamilyName (DejaVu Sans) def
/FullName (DejaVu Sans) def
/Notice (Copyright (c) 2003 by Bitstream, Inc. All Rights Reserved. Copyright (c) 2006 by Tavmjong Bah. All Rights Reserved. DejaVu changes are in public domain ) def
/Weight (Book) def
/Version (Version 2.35) def
/ItalicAngle 0.0 def
/isFixedPitch false def
/UnderlinePosition -130 def
/UnderlineThickness 90 def
end readonly def
/CharStrings 29 dict dup begin
/.notdef 0 def
/period{318 0 107 0 210 124 _sc
107 124 _m
210 124 _l
210 0 _l
107 0 _l
107 124 _l
_cl}_d
/zero{636 0 66 -13 570 742 _sc
318 664 _m
267 664 229 639 203 589 _c
177 539 165 464 165 364 _c
165 264 177 189 203 139 _c
229 89 267 64 318 64 _c
369 64 407 89 433 139 _c
458 189 471 264 471 364 _c
471 464 458 539 433 589 _c
407 639 369 664 318 664 _c
318 742 _m
399 742 461 709 505 645 _c
548 580 570 486 570 364 _c
570 241 548 147 505 83 _c
461 19 399 -13 318 -13 _c
236 -13 173 19 130 83 _c
87 147 66 241 66 364 _c
66 486 87 580 130 645 _c
173 709 236 742 318 742 _c
_cl}_d
/one{636 0 110 0 544 729 _sc
124 83 _m
285 83 _l
285 639 _l
110 604 _l
110 694 _l
284 729 _l
383 729 _l
383 83 _l
544 83 _l
544 0 _l
124 0 _l
124 83 _l
_cl}_d
/two{{636 0 73 0 536 742 _sc
192 83 _m
536 83 _l
536 0 _l
73 0 _l
73 83 _l
110 121 161 173 226 239 _c
290 304 331 346 348 365 _c
380 400 402 430 414 455 _c
426 479 433 504 433 528 _c
433 566 419 598 392 622 _c
365 646 330 659 286 659 _c
255 659 222 653 188 643 _c
154 632 117 616 78 594 _c
78 694 _l
118 710 155 722 189 730 _c
223 738 255 742 284 742 _c
}_e{359 742 419 723 464 685 _c
509 647 532 597 532 534 _c
532 504 526 475 515 449 _c
504 422 484 390 454 354 _c
446 344 420 317 376 272 _c
332 227 271 164 192 83 _c
_cl}_e}_d
/three{{636 0 76 -13 556 742 _sc
406 393 _m
453 383 490 362 516 330 _c
542 298 556 258 556 212 _c
556 140 531 84 482 45 _c
432 6 362 -13 271 -13 _c
240 -13 208 -10 176 -4 _c
144 1 110 10 76 22 _c
76 117 _l
103 101 133 89 166 81 _c
198 73 232 69 268 69 _c
330 69 377 81 409 105 _c
441 129 458 165 458 212 _c
458 254 443 288 413 312 _c
383 336 341 349 287 349 _c
}_e{202 349 _l
202 430 _l
291 430 _l
339 430 376 439 402 459 _c
428 478 441 506 441 543 _c
441 580 427 609 401 629 _c
374 649 336 659 287 659 _c
260 659 231 656 200 650 _c
169 644 135 635 98 623 _c
98 711 _l
135 721 170 729 203 734 _c
235 739 266 742 296 742 _c
370 742 429 725 473 691 _c
517 657 539 611 539 553 _c
539 513 527 479 504 451 _c
481 423 448 403 406 393 _c
_cl}_e}_d
/four{636 0 49 0 580 729 _sc
378 643 _m
129 254 _l
378 254 _l
378 643 _l
352 729 _m
476 729 _l
476 254 _l
580 254 _l
580 172 _l
476 172 _l
476 0 _l
378 0 _l
378 172 _l
49 172 _l
49 267 _l
352 729 _l
_cl}_d
/five{{636 0 77 -13 549 729 _sc
108 729 _m
495 729 _l
495 646 _l
198 646 _l
198 467 _l
212 472 227 476 241 478 _c
255 480 270 482 284 482 _c
365 482 429 459 477 415 _c
525 370 549 310 549 234 _c
549 155 524 94 475 51 _c
426 8 357 -13 269 -13 _c
238 -13 207 -10 175 -6 _c
143 -1 111 6 77 17 _c
77 116 _l
106 100 136 88 168 80 _c
199 72 232 69 267 69 _c
}_e{323 69 368 83 401 113 _c
433 143 450 183 450 234 _c
450 284 433 324 401 354 _c
368 384 323 399 267 399 _c
241 399 214 396 188 390 _c
162 384 135 375 108 363 _c
108 729 _l
_cl}_e}_d
/six{{636 0 70 -13 573 742 _sc
330 404 _m
286 404 251 388 225 358 _c
199 328 186 286 186 234 _c
186 181 199 139 225 109 _c
251 79 286 64 330 64 _c
374 64 409 79 435 109 _c
461 139 474 181 474 234 _c
474 286 461 328 435 358 _c
409 388 374 404 330 404 _c
526 713 _m
526 623 _l
501 635 476 644 451 650 _c
425 656 400 659 376 659 _c
310 659 260 637 226 593 _c
}_e{192 549 172 482 168 394 _c
187 422 211 444 240 459 _c
269 474 301 482 336 482 _c
409 482 467 459 509 415 _c
551 371 573 310 573 234 _c
573 159 550 99 506 54 _c
462 9 403 -13 330 -13 _c
246 -13 181 19 137 83 _c
92 147 70 241 70 364 _c
70 479 97 571 152 639 _c
206 707 280 742 372 742 _c
396 742 421 739 447 735 _c
472 730 498 723 526 713 _c
_cl}_e}_d
/seven{636 0 82 0 551 729 _sc
82 729 _m
551 729 _l
551 687 _l
286 0 _l
183 0 _l
432 646 _l
82 646 _l
82 729 _l
_cl}_d
/eight{{636 0 68 -13 568 742 _sc
318 346 _m
271 346 234 333 207 308 _c
180 283 167 249 167 205 _c
167 161 180 126 207 101 _c
234 76 271 64 318 64 _c
364 64 401 76 428 102 _c
455 127 469 161 469 205 _c
469 249 455 283 429 308 _c
402 333 365 346 318 346 _c
219 388 _m
177 398 144 418 120 447 _c
96 476 85 511 85 553 _c
85 611 105 657 147 691 _c
188 725 245 742 318 742 _c
}_e{390 742 447 725 489 691 _c
530 657 551 611 551 553 _c
551 511 539 476 515 447 _c
491 418 459 398 417 388 _c
464 377 501 355 528 323 _c
554 291 568 251 568 205 _c
568 134 546 80 503 43 _c
459 5 398 -13 318 -13 _c
237 -13 175 5 132 43 _c
89 80 68 134 68 205 _c
68 251 81 291 108 323 _c
134 355 171 377 219 388 _c
183 544 _m
183 506 194 476 218 455 _c
}_e{242 434 275 424 318 424 _c
360 424 393 434 417 455 _c
441 476 453 506 453 544 _c
453 582 441 611 417 632 _c
393 653 360 664 318 664 _c
275 664 242 653 218 632 _c
194 611 183 582 183 544 _c
_cl}_e}_d
/nine{{636 0 63 -13 566 742 _sc
110 15 _m
110 105 _l
134 93 159 84 185 78 _c
210 72 235 69 260 69 _c
324 69 374 90 408 134 _c
442 178 462 244 468 334 _c
448 306 424 284 396 269 _c
367 254 335 247 300 247 _c
226 247 168 269 126 313 _c
84 357 63 417 63 494 _c
63 568 85 628 129 674 _c
173 719 232 742 306 742 _c
390 742 455 709 499 645 _c
543 580 566 486 566 364 _c
}_e{566 248 538 157 484 89 _c
429 21 356 -13 264 -13 _c
239 -13 214 -10 189 -6 _c
163 -2 137 5 110 15 _c
306 324 _m
350 324 385 339 411 369 _c
437 399 450 441 450 494 _c
450 546 437 588 411 618 _c
385 648 350 664 306 664 _c
262 664 227 648 201 618 _c
175 588 162 546 162 494 _c
162 441 175 399 201 369 _c
227 339 262 324 306 324 _c
_cl}_e}_d
/a{{613 0 60 -13 522 560 _sc
343 275 _m
270 275 220 266 192 250 _c
164 233 150 205 150 165 _c
150 133 160 107 181 89 _c
202 70 231 61 267 61 _c
317 61 357 78 387 114 _c
417 149 432 196 432 255 _c
432 275 _l
343 275 _l
522 312 _m
522 0 _l
432 0 _l
432 83 _l
411 49 385 25 355 10 _c
325 -5 287 -13 243 -13 _c
187 -13 142 2 109 33 _c
76 64 60 106 60 159 _c
}_e{60 220 80 266 122 298 _c
163 329 224 345 306 345 _c
432 345 _l
432 354 _l
432 395 418 427 391 450 _c
364 472 326 484 277 484 _c
245 484 215 480 185 472 _c
155 464 127 453 100 439 _c
100 522 _l
132 534 164 544 195 550 _c
226 556 256 560 286 560 _c
365 560 424 539 463 498 _c
502 457 522 395 522 312 _c
_cl}_e}_d
/c{{550 0 55 -13 488 560 _sc
488 526 _m
488 442 _l
462 456 437 466 411 473 _c
385 480 360 484 334 484 _c
276 484 230 465 198 428 _c
166 391 150 339 150 273 _c
150 206 166 154 198 117 _c
230 80 276 62 334 62 _c
360 62 385 65 411 72 _c
437 79 462 90 488 104 _c
488 21 _l
462 9 436 0 410 -5 _c
383 -10 354 -13 324 -13 _c
242 -13 176 12 128 64 _c
}_e{79 115 55 185 55 273 _c
55 362 79 432 128 483 _c
177 534 244 560 330 560 _c
358 560 385 557 411 551 _c
437 545 463 537 488 526 _c
_cl}_e}_d
/e{{615 0 55 -13 562 560 _sc
562 296 _m
562 252 _l
149 252 _l
153 190 171 142 205 110 _c
238 78 284 62 344 62 _c
378 62 412 66 444 74 _c
476 82 509 95 541 113 _c
541 28 _l
509 14 476 3 442 -3 _c
408 -9 373 -13 339 -13 _c
251 -13 182 12 131 62 _c
80 112 55 181 55 268 _c
55 357 79 428 127 481 _c
175 533 241 560 323 560 _c
397 560 455 536 498 489 _c
}_e{540 441 562 377 562 296 _c
472 322 _m
471 371 457 410 431 440 _c
404 469 368 484 324 484 _c
274 484 234 469 204 441 _c
174 413 156 373 152 322 _c
472 322 _l
_cl}_e}_d
/f{352 0 23 0 371 760 _sc
371 760 _m
371 685 _l
285 685 _l
253 685 230 678 218 665 _c
205 652 199 629 199 595 _c
199 547 _l
347 547 _l
347 477 _l
199 477 _l
199 0 _l
109 0 _l
109 477 _l
23 477 _l
23 547 _l
109 547 _l
109 585 _l
109 645 123 690 151 718 _c
179 746 224 760 286 760 _c
371 760 _l
_cl}_d
/g{{635 0 55 -207 544 560 _sc
454 280 _m
454 344 440 395 414 431 _c
387 467 349 485 301 485 _c
253 485 215 467 188 431 _c
161 395 148 344 148 280 _c
148 215 161 165 188 129 _c
215 93 253 75 301 75 _c
349 75 387 93 414 129 _c
440 165 454 215 454 280 _c
544 68 _m
544 -24 523 -93 482 -139 _c
440 -184 377 -207 292 -207 _c
260 -207 231 -204 203 -200 _c
175 -195 147 -188 121 -178 _c
}_e{121 -91 _l
147 -105 173 -115 199 -122 _c
225 -129 251 -133 278 -133 _c
336 -133 380 -117 410 -87 _c
439 -56 454 -10 454 52 _c
454 96 _l
435 64 411 40 382 24 _c
353 8 319 0 279 0 _c
211 0 157 25 116 76 _c
75 127 55 195 55 280 _c
55 364 75 432 116 483 _c
157 534 211 560 279 560 _c
319 560 353 552 382 536 _c
411 520 435 496 454 464 _c
454 547 _l
544 547 _l
}_e{544 68 _l
_cl}_e}_d
/h{634 0 91 0 549 760 _sc
549 330 _m
549 0 _l
459 0 _l
459 327 _l
459 379 448 417 428 443 _c
408 469 378 482 338 482 _c
289 482 251 466 223 435 _c
195 404 181 362 181 309 _c
181 0 _l
91 0 _l
91 760 _l
181 760 _l
181 462 _l
202 494 227 519 257 535 _c
286 551 320 560 358 560 _c
420 560 468 540 500 501 _c
532 462 549 405 549 330 _c
_cl}_d
/i{278 0 94 0 184 760 _sc
94 547 _m
184 547 _l
184 0 _l
94 0 _l
94 547 _l
94 760 _m
184 760 _l
184 646 _l
94 646 _l
94 760 _l
_cl}_d
/j{278 0 -17 -207 184 760 _sc
94 547 _m
184 547 _l
184 -9 _l
184 -78 170 -128 144 -160 _c
117 -191 74 -207 16 -207 _c
-17 -207 _l
-17 -131 _l
6 -131 _l
40 -131 63 -123 75 -107 _c
87 -91 94 -58 94 -9 _c
94 547 _l
94 760 _m
184 760 _l
184 646 _l
94 646 _l
94 760 _l
_cl}_d
/l{278 0 94 0 184 760 _sc
94 760 _m
184 760 _l
184 0 _l
94 0 _l
94 760 _l
_cl}_d
/n{634 0 91 0 549 560 _sc
549 330 _m
549 0 _l
459 0 _l
459 327 _l
459 379 448 417 428 443 _c
408 469 378 482 338 482 _c
289 482 251 466 223 435 _c
195 404 181 362 181 309 _c
181 0 _l
91 0 _l
91 547 _l
181 547 _l
181 462 _l
202 494 227 519 257 535 _c
286 551 320 560 358 560 _c
420 560 468 540 500 501 _c
532 462 549 405 549 330 _c
_cl}_d
/o{612 0 55 -13 557 560 _sc
306 484 _m
258 484 220 465 192 427 _c
164 389 150 338 150 273 _c
150 207 163 156 191 118 _c
219 80 257 62 306 62 _c
354 62 392 80 420 118 _c
448 156 462 207 462 273 _c
462 337 448 389 420 427 _c
392 465 354 484 306 484 _c
306 560 _m
384 560 445 534 490 484 _c
534 433 557 363 557 273 _c
557 183 534 113 490 63 _c
445 12 384 -13 306 -13 _c
227 -13 165 12 121 63 _c
77 113 55 183 55 273 _c
55 363 77 433 121 484 _c
165 534 227 560 306 560 _c
_cl}_d
/p{{635 0 91 -207 580 560 _sc
181 82 _m
181 -207 _l
91 -207 _l
91 547 _l
181 547 _l
181 464 _l
199 496 223 520 252 536 _c
281 552 316 560 356 560 _c
422 560 476 533 518 481 _c
559 428 580 359 580 273 _c
580 187 559 117 518 65 _c
476 13 422 -13 356 -13 _c
316 -13 281 -5 252 10 _c
223 25 199 49 181 82 _c
487 273 _m
487 339 473 390 446 428 _c
418 466 381 485 334 485 _c
}_e{286 485 249 466 222 428 _c
194 390 181 339 181 273 _c
181 207 194 155 222 117 _c
249 79 286 61 334 61 _c
381 61 418 79 446 117 _c
473 155 487 207 487 273 _c
_cl}_e}_d
/r{411 0 91 0 411 560 _sc
411 463 _m
401 469 390 473 378 476 _c
366 478 353 480 339 480 _c
288 480 249 463 222 430 _c
194 397 181 350 181 288 _c
181 0 _l
91 0 _l
91 547 _l
181 547 _l
181 462 _l
199 495 224 520 254 536 _c
284 552 321 560 365 560 _c
371 560 378 559 386 559 _c
393 558 401 557 411 555 _c
411 463 _l
_cl}_d
/s{{521 0 54 -13 472 560 _sc
443 531 _m
443 446 _l
417 458 391 468 364 475 _c
336 481 308 485 279 485 _c
234 485 200 478 178 464 _c
156 450 145 430 145 403 _c
145 382 153 366 169 354 _c
185 342 217 330 265 320 _c
296 313 _l
360 299 405 279 432 255 _c
458 230 472 195 472 151 _c
472 100 452 60 412 31 _c
372 1 316 -13 246 -13 _c
216 -13 186 -10 154 -5 _c
}_e{122 0 89 8 54 20 _c
54 113 _l
87 95 120 82 152 74 _c
184 65 216 61 248 61 _c
290 61 323 68 346 82 _c
368 96 380 117 380 144 _c
380 168 371 187 355 200 _c
339 213 303 226 247 238 _c
216 245 _l
160 257 119 275 95 299 _c
70 323 58 356 58 399 _c
58 450 76 490 112 518 _c
148 546 200 560 268 560 _c
301 560 332 557 362 552 _c
391 547 418 540 443 531 _c
}_e{_cl}_e}_d
/t{392 0 27 0 368 702 _sc
183 702 _m
183 547 _l
368 547 _l
368 477 _l
183 477 _l
183 180 _l
183 135 189 106 201 94 _c
213 81 238 75 276 75 _c
368 75 _l
368 0 _l
276 0 _l
206 0 158 13 132 39 _c
106 65 93 112 93 180 _c
93 477 _l
27 477 _l
27 547 _l
93 547 _l
93 702 _l
183 702 _l
_cl}_d
/u{634 0 85 -13 543 560 _sc
85 216 _m
85 547 _l
175 547 _l
175 219 _l
175 167 185 129 205 103 _c
225 77 255 64 296 64 _c
344 64 383 79 411 110 _c
439 141 453 183 453 237 _c
453 547 _l
543 547 _l
543 0 _l
453 0 _l
453 84 _l
431 50 405 26 377 10 _c
348 -5 315 -13 277 -13 _c
214 -13 166 6 134 45 _c
101 83 85 140 85 216 _c
311 560 _m
311 560 _l
_cl}_d
/w{818 0 42 0 776 547 _sc
42 547 _m
132 547 _l
244 120 _l
356 547 _l
462 547 _l
574 120 _l
686 547 _l
776 547 _l
633 0 _l
527 0 _l
409 448 _l
291 0 _l
185 0 _l
42 547 _l
_cl}_d
end readonly def

/BuildGlyph
 {exch begin
 CharStrings exch
 2 copy known not{pop /.notdef}if
 true 3 1 roll get exec
 end}_d

/BuildChar {
 1 index /Encoding get exch get
 1 index /BuildGlyph get exec
}_d

FontName currentdict end definefont pop
end
%%EndProlog
mpldict begin
-51.461 145.758 translate
714.921 500.485 0 0 clipbox
gsave
0 0 m
714.921277 0 l
714.921277 500.484875 l
0 500.484875 l
cl
1.000 setgray
fill
grestore
gsave
48.359375 37.296875 m
701.219375 37.296875 l
701.219375 488.484875 l
48.359375 488.484875 l
cl
1.000 setgray
fill
grestore
1.000 setlinewidth
1 setlinejoin
0 setlinecap
[] 0 setdash
0.150 setgray
gsave
/o {
gsave
newpath
translate
1.0 setlinewidth
1 setlinejoin
0 setlinecap
0 0 m
0 -4.8 l

gsave
0.150 setgray
fill
grestore
stroke
grestore
} bind def
71.7874 37.2969 o
grestore
/DejaVuSans findfont
8.800 scalefont
setfont
gsave
60.599865 22.309375 translate
0.000000 rotate
0.000000 0.000000 m /one glyphshow
5.596832 0.000000 m /eight glyphshow
11.193665 0.000000 m /four glyphshow
16.790497 0.000000 m /zero glyphshow
grestore
gsave
/o {
gsave
newpath
translate
1.0 setlinewidth
1 setlinejoin
0 setlinecap
0 0 m
0 -4.8 l

gsave
0.150 setgray
fill
grestore
stroke
grestore
} bind def
134.262 37.2969 o
grestore
gsave
123.074507 22.309375 translate
0.000000 rotate
0.000000 0.000000 m /one glyphshow
5.596832 0.000000 m /eight glyphshow
11.193665 0.000000 m /five glyphshow
16.790497 0.000000 m /zero glyphshow
grestore
gsave
/o {
gsave
newpath
translate
1.0 setlinewidth
1 setlinejoin
0 setlinecap
0 0 m
0 -4.8 l

gsave
0.150 setgray
fill
grestore
stroke
grestore
} bind def
196.737 37.2969 o
grestore
gsave
185.549148 22.309375 translate
0.000000 rotate
0.000000 0.000000 m /one glyphshow
5.596832 0.000000 m /eight glyphshow
11.193665 0.000000 m /six glyphshow
16.790497 0.000000 m /zero glyphshow
grestore
gsave
/o {
gsave
newpath
translate
1.0 setlinewidth
1 setlinejoin
0 setlinecap
0 0 m
0 -4.8 l

gsave
0.150 setgray
fill
grestore
stroke
grestore
} bind def
259.211 37.2969 o
grestore
gsave
248.023789 22.309375 translate
0.000000 rotate
0.000000 0.000000 m /one glyphshow
5.596832 0.000000 m /eight glyphshow
11.193665 0.000000 m /seven glyphshow
16.790497 0.000000 m /zero glyphshow
grestore
gsave
/o {
gsave
newpath
translate
1.0 setlinewidth
1 setlinejoin
0 setlinecap
0 0 m
0 -4.8 l

gsave
0.150 setgray
fill
grestore
stroke
grestore
} bind def
321.686 37.2969 o
grestore
gsave
310.498430 22.309375 translate
0.000000 rotate
0.000000 0.000000 m /one glyphshow
5.596832 0.000000 m /eight glyphshow
11.193665 0.000000 m /eight glyphshow
16.790497 0.000000 m /zero glyphshow
grestore
gsave
/o {
gsave
newpath
translate
1.0 setlinewidth
1 setlinejoin
0 setlinecap
0 0 m
0 -4.8 l

gsave
0.150 setgray
fill
grestore
stroke
grestore
} bind def
384.161 37.2969 o
grestore
gsave
372.973071 22.309375 translate
0.000000 rotate
0.000000 0.000000 m /one glyphshow
5.596832 0.000000 m /eight glyphshow
11.193665 0.000000 m /nine glyphshow
16.790497 0.000000 m /zero glyphshow
grestore
gsave
/o {
gsave
newpath
translate
1.0 setlinewidth
1 setlinejoin
0 setlinecap
0 0 m
0 -4.8 l

gsave
0.150 setgray
fill
grestore
stroke
grestore
} bind def
446.635 37.2969 o
grestore
gsave
435.447712 22.309375 translate
0.000000 rotate
0.000000 0.000000 m /one glyphshow
5.596832 0.000000 m /nine glyphshow
11.193665 0.000000 m /zero glyphshow
16.790497 0.000000 m /zero glyphshow
grestore
gsave
/o {
gsave
newpath
translate
1.0 setlinewidth
1 setlinejoin
0 setlinecap
0 0 m
0 -4.8 l

gsave
0.150 setgray
fill
grestore
stroke
grestore
} bind def
509.11 37.2969 o
grestore
gsave
497.922353 22.309375 translate
0.000000 rotate
0.000000 0.000000 m /one glyphshow
5.596832 0.000000 m /nine glyphshow
11.193665 0.000000 m /one glyphshow
16.790497 0.000000 m /zero glyphshow
grestore
gsave
/o {
gsave
newpath
translate
1.0 setlinewidth
1 setlinejoin
0 setlinecap
0 0 m
0 -4.8 l

gsave
0.150 setgray
fill
grestore
stroke
grestore
} bind def
571.584 37.2969 o
grestore
gsave
560.396995 22.309375 translate
0.000000 rotate
0.000000 0.000000 m /one glyphshow
5.596832 0.000000 m /nine glyphshow
11.193665 0.000000 m /two glyphshow
16.790497 0.000000 m /zero glyphshow
grestore
gsave
/o {
gsave
newpath
translate
1.0 setlinewidth
1 setlinejoin
0 setlinecap
0 0 m
0 -4.8 l

gsave
0.150 setgray
fill
grestore
stroke
grestore
} bind def
634.059 37.2969 o
grestore
gsave
622.871636 22.309375 translate
0.000000 rotate
0.000000 0.000000 m /one glyphshow
5.596832 0.000000 m /nine glyphshow
11.193665 0.000000 m /three glyphshow
16.790497 0.000000 m /zero glyphshow
grestore
gsave
/o {
gsave
newpath
translate
1.0 setlinewidth
1 setlinejoin
0 setlinecap
0 0 m
0 -4.8 l

gsave
0.150 setgray
fill
grestore
stroke
grestore
} bind def
696.534 37.2969 o
grestore
gsave
685.346277 22.309375 translate
0.000000 rotate
0.000000 0.000000 m /one glyphshow
5.596832 0.000000 m /nine glyphshow
11.193665 0.000000 m /four glyphshow
16.790497 0.000000 m /zero glyphshow
grestore
/DejaVuSans findfont
9.600 scalefont
setfont
gsave
365.609688 9.200000 translate
0.000000 rotate
0.000000 0.000000 m /j glyphshow
2.665451 0.000000 m /a glyphshow
8.544434 0.000000 m /a glyphshow
14.423416 0.000000 m /r glyphshow
grestore
gsave
/o {
gsave
newpath
translate
1.0 setlinewidth
1 setlinejoin
0 setlinecap
0 0 m
-4.8 0 l

gsave
0.150 setgray
fill
grestore
stroke
grestore
} bind def
48.3594 45.27 o
grestore
/DejaVuSans findfont
8.800 scalefont
setfont
gsave
20.481250 41.926226 translate
0.000000 rotate
0.000000 0.000000 m /zero glyphshow
5.596832 0.000000 m /period glyphshow
8.393097 0.000000 m /zero glyphshow
13.989929 0.000000 m /zero glyphshow
grestore
gsave
/o {
gsave
newpath
translate
1.0 setlinewidth
1 setlinejoin
0 setlinecap
0 0 m
-4.8 0 l

gsave
0.150 setgray
fill
grestore
stroke
grestore
} bind def
48.3594 92.2928 o
grestore
gsave
20.481250 88.949005 translate
0.000000 rotate
0.000000 0.000000 m /zero glyphshow
5.596832 0.000000 m /period glyphshow
8.393097 0.000000 m /zero glyphshow
13.989929 0.000000 m /two glyphshow
grestore
gsave
/o {
gsave
newpath
translate
1.0 setlinewidth
1 setlinejoin
0 setlinecap
0 0 m
-4.8 0 l

gsave
0.150 setgray
fill
grestore
stroke
grestore
} bind def
48.3594 139.316 o
grestore
gsave
20.481250 135.971784 translate
0.000000 rotate
0.000000 0.000000 m /zero glyphshow
5.596832 0.000000 m /period glyphshow
8.393097 0.000000 m /zero glyphshow
13.989929 0.000000 m /four glyphshow
grestore
gsave
/o {
gsave
newpath
translate
1.0 setlinewidth
1 setlinejoin
0 setlinecap
0 0 m
-4.8 0 l

gsave
0.150 setgray
fill
grestore
stroke
grestore
} bind def
48.3594 186.338 o
grestore
gsave
20.481250 182.994562 translate
0.000000 rotate
0.000000 0.000000 m /zero glyphshow
5.596832 0.000000 m /period glyphshow
8.393097 0.000000 m /zero glyphshow
13.989929 0.000000 m /six glyphshow
grestore
gsave
/o {
gsave
newpath
translate
1.0 setlinewidth
1 setlinejoin
0 setlinecap
0 0 m
-4.8 0 l

gsave
0.150 setgray
fill
grestore
stroke
grestore
} bind def
48.3594 233.361 o
grestore
gsave
20.481250 230.017341 translate
0.000000 rotate
0.000000 0.000000 m /zero glyphshow
5.596832 0.000000 m /period glyphshow
8.393097 0.000000 m /zero glyphshow
13.989929 0.000000 m /eight glyphshow
grestore
gsave
/o {
gsave
newpath
translate
1.0 setlinewidth
1 setlinejoin
0 setlinecap
0 0 m
-4.8 0 l

gsave
0.150 setgray
fill
grestore
stroke
grestore
} bind def
48.3594 280.384 o
grestore
gsave
20.481250 277.040120 translate
0.000000 rotate
0.000000 0.000000 m /zero glyphshow
5.596832 0.000000 m /period glyphshow
8.393097 0.000000 m /one glyphshow
13.989929 0.000000 m /zero glyphshow
grestore
gsave
/o {
gsave
newpath
translate
1.0 setlinewidth
1 setlinejoin
0 setlinecap
0 0 m
-4.8 0 l

gsave
0.150 setgray
fill
grestore
stroke
grestore
} bind def
48.3594 327.407 o
grestore
gsave
20.481250 324.062899 translate
0.000000 rotate
0.000000 0.000000 m /zero glyphshow
5.596832 0.000000 m /period glyphshow
8.393097 0.000000 m /one glyphshow
13.989929 0.000000 m /two glyphshow
grestore
gsave
/o {
gsave
newpath
translate
1.0 setlinewidth
1 setlinejoin
0 setlinecap
0 0 m
-4.8 0 l

gsave
0.150 setgray
fill
grestore
stroke
grestore
} bind def
48.3594 374.429 o
grestore
gsave
20.481250 371.085677 translate
0.000000 rotate
0.000000 0.000000 m /zero glyphshow
5.596832 0.000000 m /period glyphshow
8.393097 0.000000 m /one glyphshow
13.989929 0.000000 m /four glyphshow
grestore
gsave
/o {
gsave
newpath
translate
1.0 setlinewidth
1 setlinejoin
0 setlinecap
0 0 m
-4.8 0 l

gsave
0.150 setgray
fill
grestore
stroke
grestore
} bind def
48.3594 421.452 o
grestore
gsave
20.481250 418.108456 translate
0.000000 rotate
0.000000 0.000000 m /zero glyphshow
5.596832 0.000000 m /period glyphshow
8.393097 0.000000 m /one glyphshow
13.989929 0.000000 m /six glyphshow
grestore
gsave
/o {
gsave
newpath
translate
1.0 setlinewidth
1 setlinejoin
0 setlinecap
0 0 m
-4.8 0 l

gsave
0.150 setgray
fill
grestore
stroke
grestore
} bind def
48.3594 468.475 o
grestore
gsave
20.481250 465.131235 translate
0.000000 rotate
0.000000 0.000000 m /zero glyphshow
5.596832 0.000000 m /period glyphshow
8.393097 0.000000 m /one glyphshow
13.989929 0.000000 m /eight glyphshow
grestore
/DejaVuSans findfont
9.600 scalefont
setfont
gsave
14.481250 240.812750 translate
90.000000 rotate
0.000000 0.000000 m /p glyphshow
6.089783 0.000000 m /r glyphshow
10.034088 0.000000 m /o glyphshow
15.903702 0.000000 m /p glyphshow
21.993484 0.000000 m /o glyphshow
27.863098 0.000000 m /r glyphshow
31.807404 0.000000 m /t glyphshow
35.569016 0.000000 m /i glyphshow
38.234467 0.000000 m /e glyphshow
grestore
1.200 setlinewidth
[4.8 1.8] 0 setdash
0.004 0.451 0.698 setrgbcolor
gsave
652.9 451.2 48.36 37.3 clipbox
78.03483 129.258448 m
84.282294 129.970881 l
90.529758 115.973357 l
96.777222 111.513038 l
103.024686 109.019147 l
109.27215 122.85667 l
115.519614 133.882389 l
121.767078 145.700561 l
128.014542 138.077495 l
134.262007 138.982817 l
140.509471 131.18773 l
146.756935 137.920443 l
153.004399 137.649648 l
159.251863 140.746557 l
165.499327 137.486269 l
171.746791 124.19525 l
177.994255 113.021934 l
184.241719 111.665818 l
190.489184 113.473467 l
196.736648 115.212177 l
202.984112 103.9664 l
209.231576 100.473263 l
215.47904 104.061387 l
221.726504 111.283895 l
227.973968 119.229092 l
234.221432 120.375894 l
240.468897 119.692015 l
246.716361 119.549408 l
252.963825 112.750394 l
259.211289 114.944906 l
265.458753 114.11472 l
271.706217 130.378748 l
277.953681 134.279499 l
284.201145 138.177103 l
290.448609 130.196225 l
296.696074 128.505831 l
302.943538 122.512104 l
309.191002 116.558981 l
315.438466 109.084437 l
321.68593 111.145069 l
327.933394 112.069933 l
334.180858 114.46818 l
340.428322 104.45716 l
346.675786 96.65486 l
352.923251 88.509281 l
359.170715 89.366111 l
365.418179 92.38681 l
371.665643 101.732327 l
377.913107 103.556638 l
384.160571 101.881333 l
390.408035 95.403201 l
396.655499 95.560735 l
402.902964 99.517792 l
409.150428 101.28517 l
415.397892 111.035508 l
421.645356 118.444022 l
427.89282 125.664911 l
434.140284 115.071724 l
440.387748 105.557399 l
446.635212 102.857809 l
452.882676 110.384833 l
459.130141 120.835901 l
465.377605 123.644954 l
471.625069 131.445201 l
477.872533 145.797517 l
484.119997 157.140401 l
490.367461 158.224674 l
496.614925 135.679618 l
502.862389 119.074408 l
509.109853 102.247571 l
515.357318 100.039544 l
521.604782 95.742809 l
527.852246 93.212138 l
534.09971 91.869304 l
540.347174 92.256237 l
546.594638 105.279938 l
552.842102 116.846553 l
559.089566 128.081071 l
565.337031 122.292324 l
571.584495 113.599615 l
577.831959 115.456221 l
584.079423 126.910735 l
590.326887 143.138961 l
596.574351 140.621358 l
602.821815 128.838968 l
609.069279 109.161293 l
615.316743 102.700468 l
621.564208 101.395371 l
627.811672 103.318177 l
634.059136 97.778798 l
640.3066 92.094385 l
646.554064 91.319288 l
652.801528 91.920877 l
659.048992 95.837518 l
665.296456 105.050769 l
671.54392 114.015219 l
stroke
grestore
[1.2 1.2] 0 setdash
0.871 0.561 0.020 setrgbcolor
gsave
652.9 451.2 48.36 37.3 clipbox
78.03483 298.319572 m
84.282294 280.075289 l
90.529758 269.353494 l
96.777222 271.386253 l
103.024686 324.378901 l
109.27215 376.145157 l
115.519614 446.010419 l
121.767078 457.298879 l
128.014542 467.97633 l
134.262007 445.349026 l
140.509471 407.591316 l
146.756935 367.040131 l
153.004399 347.028269 l
159.251863 385.316201 l
165.499327 398.077375 l
171.746791 381.812757 l
177.994255 323.656971 l
184.241719 297.027725 l
190.489184 306.544625 l
196.736648 340.052345 l
202.984112 375.539999 l
209.231576 373.680117 l
215.47904 347.61747 l
221.726504 286.522477 l
227.973968 252.129232 l
234.221432 234.247845 l
240.468897 245.297115 l
246.716361 238.074358 l
252.963825 224.208132 l
259.211289 197.926112 l
265.458753 194.664581 l
271.706217 192.348704 l
277.953681 203.330841 l
284.201145 197.707584 l
290.448609 191.901921 l
296.696074 183.819197 l
302.943538 182.890076 l
309.191002 185.174545 l
315.438466 178.468594 l
321.68593 163.482807 l
327.933394 149.654609 l
334.180858 138.279382 l
340.428322 130.489425 l
346.675786 130.104406 l
352.923251 137.009253 l
359.170715 160.052085 l
365.418179 163.536674 l
371.665643 168.766314 l
377.913107 154.482602 l
384.160571 163.080562 l
390.408035 158.375328 l
396.655499 158.509081 l
402.902964 149.11128 l
409.150428 151.351741 l
415.397892 149.428343 l
421.645356 135.131186 l
427.89282 111.470896 l
434.140284 95.751354 l
440.387748 90.261853 l
446.635212 91.598422 l
452.882676 92.341577 l
459.130141 92.230696 l
465.377605 89.690603 l
471.625069 82.604991 l
477.872533 78.445595 l
484.119997 76.628181 l
490.367461 87.092284 l
496.614925 96.4921 l
502.862389 111.034713 l
509.109853 112.851292 l
515.357318 117.27102 l
521.604782 111.385918 l
527.852246 104.480157 l
534.09971 93.298395 l
540.347174 83.411838 l
546.594638 80.080545 l
552.842102 76.737126 l
559.089566 78.381024 l
565.337031 79.05209 l
571.584495 80.878221 l
577.831959 80.764541 l
584.079423 85.178392 l
590.326887 87.547588 l
596.574351 88.587141 l
602.821815 82.398765 l
609.069279 81.290925 l
615.316743 83.572282 l
621.564208 84.527717 l
627.811672 80.801088 l
634.059136 74.819295 l
640.3066 73.990864 l
646.554064 73.633078 l
652.801528 77.979179 l
659.048992 80.689488 l
665.296456 89.499428 l
671.54392 92.795559 l
stroke
grestore
1 setlinecap
[] 0 setdash
0.008 0.620 0.451 setrgbcolor
gsave
652.9 451.2 48.36 37.3 clipbox
78.03483 57.80542 m
84.282294 58.23333 l
90.529758 58.775523 l
96.777222 58.005244 l
103.024686 63.37273 l
109.27215 67.193074 l
115.519614 70.988459 l
121.767078 65.821535 l
128.014542 60.907877 l
134.262007 60.363156 l
140.509471 66.402135 l
146.756935 76.124232 l
153.004399 77.784868 l
159.251863 75.726015 l
165.499327 70.688375 l
171.746791 74.937819 l
177.994255 79.389639 l
184.241719 81.995249 l
190.489184 85.224635 l
196.736648 90.392213 l
202.984112 104.462396 l
209.231576 103.721298 l
215.47904 98.565181 l
221.726504 83.482375 l
227.973968 80.901486 l
234.221432 85.518226 l
240.468897 95.879467 l
246.716361 108.17498 l
252.963825 121.793502 l
259.211289 134.832273 l
265.458753 162.106117 l
271.706217 189.543985 l
277.953681 223.015747 l
284.201145 225.133483 l
290.448609 230.871536 l
296.696074 224.397437 l
302.943538 222.691884 l
309.191002 201.137458 l
315.438466 175.675664 l
321.68593 161.972761 l
327.933394 164.612839 l
334.180858 180.064901 l
340.428322 185.036544 l
346.675786 169.368916 l
352.923251 145.062326 l
359.170715 128.453126 l
365.418179 135.49549 l
371.665643 149.863166 l
377.913107 179.016563 l
384.160571 199.645678 l
390.408035 211.301516 l
396.655499 186.9109 l
402.902964 163.605065 l
409.150428 149.414173 l
415.397892 157.674175 l
421.645356 168.46002 l
427.89282 168.542684 l
434.140284 166.995184 l
440.387748 146.656104 l
446.635212 136.18313 l
452.882676 116.461324 l
459.130141 110.837773 l
465.377605 99.499434 l
471.625069 100.525015 l
477.872533 103.401671 l
484.119997 110.878702 l
490.367461 115.065266 l
496.614925 121.612194 l
502.862389 124.324513 l
509.109853 131.837317 l
515.357318 142.731477 l
521.604782 157.322242 l
527.852246 154.123198 l
534.09971 141.237873 l
540.347174 124.953 l
546.594638 131.237483 l
552.842102 140.74733 l
559.089566 156.2267 l
565.337031 148.728759 l
571.584495 138.047441 l
577.831959 126.686267 l
584.079423 150.855677 l
590.326887 194.83841 l
596.574351 239.153402 l
602.821815 246.022406 l
609.069279 224.054838 l
615.316743 195.54254 l
621.564208 177.404453 l
627.811672 173.992853 l
634.059136 175.802182 l
640.3066 186.720697 l
646.554064 194.629803 l
652.801528 198.343555 l
659.048992 192.749982 l
665.296456 193.696989 l
671.54392 191.371554 l
stroke
grestore
1.000 setlinewidth
0 setlinejoin
2 setlinecap
[] 0 setdash
0.150 setgray
gsave
48.359375 37.296875 m
48.359375 488.484875 l
stroke
grestore
gsave
701.219375 37.296875 m
701.219375 488.484875 l
stroke
grestore
gsave
48.359375 37.296875 m
701.219375 37.296875 l
stroke
grestore
gsave
48.359375 488.484875 m
701.219375 488.484875 l
stroke
grestore
0.800 setlinewidth
0 setlinecap
0.800 setgray
gsave
568.118125 442.698 m
695.059375 442.698 l
696.232708 442.698 696.819375 443.284667 696.819375 444.458 c
696.819375 482.324875 l
696.819375 483.498208 696.232708 484.084875 695.059375 484.084875 c
568.118125 484.084875 l
566.944792 484.084875 566.358125 483.498208 566.358125 482.324875 c
566.358125 444.458 l
566.358125 443.284667 566.944792 442.698 568.118125 442.698 c
cl
gsave
1.000 setgray
fill
grestore
stroke
grestore
1.200 setlinewidth
1 setlinejoin
[4.8 1.8] 0 setdash
0.004 0.451 0.698 setrgbcolor
gsave
569.878125 476.957375 m
587.478125 476.957375 l
stroke
grestore
0.150 setgray
/DejaVuSans findfont
8.800 scalefont
setfont
gsave
594.518125 473.877375 translate
0.000000 rotate
0.000000 0.000000 m /n glyphshow
5.575363 0.000000 m /a glyphshow
10.966019 0.000000 m /t glyphshow
14.415176 0.000000 m /u glyphshow
19.990540 0.000000 m /u glyphshow
25.565903 0.000000 m /r glyphshow
29.182587 0.000000 m /w glyphshow
36.377289 0.000000 m /e glyphshow
41.789429 0.000000 m /t glyphshow
45.238586 0.000000 m /e glyphshow
50.650726 0.000000 m /n glyphshow
56.226089 0.000000 m /s glyphshow
60.809219 0.000000 m /c glyphshow
65.645782 0.000000 m /h glyphshow
71.221146 0.000000 m /a glyphshow
76.611801 0.000000 m /p glyphshow
82.195755 0.000000 m /p glyphshow
87.779709 0.000000 m /e glyphshow
93.191849 0.000000 m /n glyphshow
grestore
[1.2 1.2] 0 setdash
0.871 0.561 0.020 setrgbcolor
gsave
569.878125 464.04175 m
587.478125 464.04175 l
stroke
grestore
0.150 setgray
gsave
594.518125 460.961750 translate
0.000000 rotate
0.000000 0.000000 m /t glyphshow
3.449158 0.000000 m /h glyphshow
9.024521 0.000000 m /e glyphshow
14.436661 0.000000 m /o glyphshow
19.818726 0.000000 m /l glyphshow
22.262772 0.000000 m /o glyphshow
27.644836 0.000000 m /g glyphshow
33.228790 0.000000 m /i glyphshow
35.672836 0.000000 m /e glyphshow
grestore
1 setlinecap
[] 0 setdash
0.008 0.620 0.451 setrgbcolor
gsave
569.878125 451.126125 m
587.478125 451.126125 l
stroke
grestore
0.150 setgray
gsave
594.518125 448.046125 translate
0.000000 rotate
0.000000 0.000000 m /f glyphshow
3.096939 0.000000 m /i glyphshow
5.540985 0.000000 m /l glyphshow
7.985031 0.000000 m /o glyphshow
13.367096 0.000000 m /s glyphshow
17.950226 0.000000 m /o glyphshow
23.332291 0.000000 m /f glyphshow
26.429230 0.000000 m /i glyphshow
28.873276 0.000000 m /e glyphshow
grestore

end
showpage
