%!PS-Adobe-3.0 EPSF-3.0
%%Title: resultaten/totaaloverzicht.eps
%%Creator: matplotlib version 3.0.1, http://matplotlib.org/
%%CreationDate: Sun Mar 17 16:27:01 2019
%%Orientation: portrait
%%BoundingBox: -48 145 660 646
%%EndComments
%%BeginProlog
/mpldict 8 dict def
mpldict begin
/m { moveto } bind def
/l { lineto } bind def
/r { rlineto } bind def
/c { curveto } bind def
/cl { closepath } bind def
/box {
m
1 index 0 r
0 exch r
neg 0 r
cl
} bind def
/clipbox {
box
clip
newpath
} bind def
%!PS-Adobe-3.0 Resource-Font
%%Title: DejaVu Sans
%%Copyright: Copyright (c) 2003 by Bitstream, Inc. All Rights Reserved. Copyright (c) 2006 by Tavmjong Bah. All Rights Reserved. DejaVu changes are in public domain 
%%Creator: Converted from TrueType to type 3 by PPR
25 dict begin
/_d{bind def}bind def
/_m{moveto}_d
/_l{lineto}_d
/_cl{closepath eofill}_d
/_c{curveto}_d
/_sc{7 -1 roll{setcachedevice}{pop pop pop pop pop pop}ifelse}_d
/_e{exec}_d
/FontName /DejaVuSans def
/PaintType 0 def
/FontMatrix[.001 0 0 .001 0 0]def
/FontBBox[-1021 -463 1793 1232]def
/FontType 3 def
/Encoding [ /space /period /zero /one /two /three /four /five /six /seven /eight /nine /a /c /d /e /g /h /i /j /k /l /n /o /p /r /s /t /u /w ] def
/FontInfo 10 dict dup begin
/FamilyName (DejaVu Sans) def
/FullName (DejaVu Sans) def
/Notice (Copyright (c) 2003 by Bitstream, Inc. All Rights Reserved. Copyright (c) 2006 by Tavmjong Bah. All Rights Reserved. DejaVu changes are in public domain ) def
/Weight (Book) def
/Version (Version 2.35) def
/ItalicAngle 0.0 def
/isFixedPitch false def
/UnderlinePosition -130 def
/UnderlineThickness 90 def
end readonly def
/CharStrings 31 dict dup begin
/.notdef 0 def
/space{318 0 0 0 0 0 _sc
}_d
/period{318 0 107 0 210 124 _sc
107 124 _m
210 124 _l
210 0 _l
107 0 _l
107 124 _l
_cl}_d
/zero{636 0 66 -13 570 742 _sc
318 664 _m
267 664 229 639 203 589 _c
177 539 165 464 165 364 _c
165 264 177 189 203 139 _c
229 89 267 64 318 64 _c
369 64 407 89 433 139 _c
458 189 471 264 471 364 _c
471 464 458 539 433 589 _c
407 639 369 664 318 664 _c
318 742 _m
399 742 461 709 505 645 _c
548 580 570 486 570 364 _c
570 241 548 147 505 83 _c
461 19 399 -13 318 -13 _c
236 -13 173 19 130 83 _c
87 147 66 241 66 364 _c
66 486 87 580 130 645 _c
173 709 236 742 318 742 _c
_cl}_d
/one{636 0 110 0 544 729 _sc
124 83 _m
285 83 _l
285 639 _l
110 604 _l
110 694 _l
284 729 _l
383 729 _l
383 83 _l
544 83 _l
544 0 _l
124 0 _l
124 83 _l
_cl}_d
/two{{636 0 73 0 536 742 _sc
192 83 _m
536 83 _l
536 0 _l
73 0 _l
73 83 _l
110 121 161 173 226 239 _c
290 304 331 346 348 365 _c
380 400 402 430 414 455 _c
426 479 433 504 433 528 _c
433 566 419 598 392 622 _c
365 646 330 659 286 659 _c
255 659 222 653 188 643 _c
154 632 117 616 78 594 _c
78 694 _l
118 710 155 722 189 730 _c
223 738 255 742 284 742 _c
}_e{359 742 419 723 464 685 _c
509 647 532 597 532 534 _c
532 504 526 475 515 449 _c
504 422 484 390 454 354 _c
446 344 420 317 376 272 _c
332 227 271 164 192 83 _c
_cl}_e}_d
/three{{636 0 76 -13 556 742 _sc
406 393 _m
453 383 490 362 516 330 _c
542 298 556 258 556 212 _c
556 140 531 84 482 45 _c
432 6 362 -13 271 -13 _c
240 -13 208 -10 176 -4 _c
144 1 110 10 76 22 _c
76 117 _l
103 101 133 89 166 81 _c
198 73 232 69 268 69 _c
330 69 377 81 409 105 _c
441 129 458 165 458 212 _c
458 254 443 288 413 312 _c
383 336 341 349 287 349 _c
}_e{202 349 _l
202 430 _l
291 430 _l
339 430 376 439 402 459 _c
428 478 441 506 441 543 _c
441 580 427 609 401 629 _c
374 649 336 659 287 659 _c
260 659 231 656 200 650 _c
169 644 135 635 98 623 _c
98 711 _l
135 721 170 729 203 734 _c
235 739 266 742 296 742 _c
370 742 429 725 473 691 _c
517 657 539 611 539 553 _c
539 513 527 479 504 451 _c
481 423 448 403 406 393 _c
_cl}_e}_d
/four{636 0 49 0 580 729 _sc
378 643 _m
129 254 _l
378 254 _l
378 643 _l
352 729 _m
476 729 _l
476 254 _l
580 254 _l
580 172 _l
476 172 _l
476 0 _l
378 0 _l
378 172 _l
49 172 _l
49 267 _l
352 729 _l
_cl}_d
/five{{636 0 77 -13 549 729 _sc
108 729 _m
495 729 _l
495 646 _l
198 646 _l
198 467 _l
212 472 227 476 241 478 _c
255 480 270 482 284 482 _c
365 482 429 459 477 415 _c
525 370 549 310 549 234 _c
549 155 524 94 475 51 _c
426 8 357 -13 269 -13 _c
238 -13 207 -10 175 -6 _c
143 -1 111 6 77 17 _c
77 116 _l
106 100 136 88 168 80 _c
199 72 232 69 267 69 _c
}_e{323 69 368 83 401 113 _c
433 143 450 183 450 234 _c
450 284 433 324 401 354 _c
368 384 323 399 267 399 _c
241 399 214 396 188 390 _c
162 384 135 375 108 363 _c
108 729 _l
_cl}_e}_d
/six{{636 0 70 -13 573 742 _sc
330 404 _m
286 404 251 388 225 358 _c
199 328 186 286 186 234 _c
186 181 199 139 225 109 _c
251 79 286 64 330 64 _c
374 64 409 79 435 109 _c
461 139 474 181 474 234 _c
474 286 461 328 435 358 _c
409 388 374 404 330 404 _c
526 713 _m
526 623 _l
501 635 476 644 451 650 _c
425 656 400 659 376 659 _c
310 659 260 637 226 593 _c
}_e{192 549 172 482 168 394 _c
187 422 211 444 240 459 _c
269 474 301 482 336 482 _c
409 482 467 459 509 415 _c
551 371 573 310 573 234 _c
573 159 550 99 506 54 _c
462 9 403 -13 330 -13 _c
246 -13 181 19 137 83 _c
92 147 70 241 70 364 _c
70 479 97 571 152 639 _c
206 707 280 742 372 742 _c
396 742 421 739 447 735 _c
472 730 498 723 526 713 _c
_cl}_e}_d
/seven{636 0 82 0 551 729 _sc
82 729 _m
551 729 _l
551 687 _l
286 0 _l
183 0 _l
432 646 _l
82 646 _l
82 729 _l
_cl}_d
/eight{{636 0 68 -13 568 742 _sc
318 346 _m
271 346 234 333 207 308 _c
180 283 167 249 167 205 _c
167 161 180 126 207 101 _c
234 76 271 64 318 64 _c
364 64 401 76 428 102 _c
455 127 469 161 469 205 _c
469 249 455 283 429 308 _c
402 333 365 346 318 346 _c
219 388 _m
177 398 144 418 120 447 _c
96 476 85 511 85 553 _c
85 611 105 657 147 691 _c
188 725 245 742 318 742 _c
}_e{390 742 447 725 489 691 _c
530 657 551 611 551 553 _c
551 511 539 476 515 447 _c
491 418 459 398 417 388 _c
464 377 501 355 528 323 _c
554 291 568 251 568 205 _c
568 134 546 80 503 43 _c
459 5 398 -13 318 -13 _c
237 -13 175 5 132 43 _c
89 80 68 134 68 205 _c
68 251 81 291 108 323 _c
134 355 171 377 219 388 _c
183 544 _m
183 506 194 476 218 455 _c
}_e{242 434 275 424 318 424 _c
360 424 393 434 417 455 _c
441 476 453 506 453 544 _c
453 582 441 611 417 632 _c
393 653 360 664 318 664 _c
275 664 242 653 218 632 _c
194 611 183 582 183 544 _c
_cl}_e}_d
/nine{{636 0 63 -13 566 742 _sc
110 15 _m
110 105 _l
134 93 159 84 185 78 _c
210 72 235 69 260 69 _c
324 69 374 90 408 134 _c
442 178 462 244 468 334 _c
448 306 424 284 396 269 _c
367 254 335 247 300 247 _c
226 247 168 269 126 313 _c
84 357 63 417 63 494 _c
63 568 85 628 129 674 _c
173 719 232 742 306 742 _c
390 742 455 709 499 645 _c
543 580 566 486 566 364 _c
}_e{566 248 538 157 484 89 _c
429 21 356 -13 264 -13 _c
239 -13 214 -10 189 -6 _c
163 -2 137 5 110 15 _c
306 324 _m
350 324 385 339 411 369 _c
437 399 450 441 450 494 _c
450 546 437 588 411 618 _c
385 648 350 664 306 664 _c
262 664 227 648 201 618 _c
175 588 162 546 162 494 _c
162 441 175 399 201 369 _c
227 339 262 324 306 324 _c
_cl}_e}_d
/a{{613 0 60 -13 522 560 _sc
343 275 _m
270 275 220 266 192 250 _c
164 233 150 205 150 165 _c
150 133 160 107 181 89 _c
202 70 231 61 267 61 _c
317 61 357 78 387 114 _c
417 149 432 196 432 255 _c
432 275 _l
343 275 _l
522 312 _m
522 0 _l
432 0 _l
432 83 _l
411 49 385 25 355 10 _c
325 -5 287 -13 243 -13 _c
187 -13 142 2 109 33 _c
76 64 60 106 60 159 _c
}_e{60 220 80 266 122 298 _c
163 329 224 345 306 345 _c
432 345 _l
432 354 _l
432 395 418 427 391 450 _c
364 472 326 484 277 484 _c
245 484 215 480 185 472 _c
155 464 127 453 100 439 _c
100 522 _l
132 534 164 544 195 550 _c
226 556 256 560 286 560 _c
365 560 424 539 463 498 _c
502 457 522 395 522 312 _c
_cl}_e}_d
/c{{550 0 55 -13 488 560 _sc
488 526 _m
488 442 _l
462 456 437 466 411 473 _c
385 480 360 484 334 484 _c
276 484 230 465 198 428 _c
166 391 150 339 150 273 _c
150 206 166 154 198 117 _c
230 80 276 62 334 62 _c
360 62 385 65 411 72 _c
437 79 462 90 488 104 _c
488 21 _l
462 9 436 0 410 -5 _c
383 -10 354 -13 324 -13 _c
242 -13 176 12 128 64 _c
}_e{79 115 55 185 55 273 _c
55 362 79 432 128 483 _c
177 534 244 560 330 560 _c
358 560 385 557 411 551 _c
437 545 463 537 488 526 _c
_cl}_e}_d
/d{{635 0 55 -13 544 760 _sc
454 464 _m
454 760 _l
544 760 _l
544 0 _l
454 0 _l
454 82 _l
435 49 411 25 382 10 _c
353 -5 319 -13 279 -13 _c
213 -13 159 13 117 65 _c
75 117 55 187 55 273 _c
55 359 75 428 117 481 _c
159 533 213 560 279 560 _c
319 560 353 552 382 536 _c
411 520 435 496 454 464 _c
148 273 _m
148 207 161 155 188 117 _c
215 79 253 61 301 61 _c
}_e{348 61 385 79 413 117 _c
440 155 454 207 454 273 _c
454 339 440 390 413 428 _c
385 466 348 485 301 485 _c
253 485 215 466 188 428 _c
161 390 148 339 148 273 _c
_cl}_e}_d
/e{{615 0 55 -13 562 560 _sc
562 296 _m
562 252 _l
149 252 _l
153 190 171 142 205 110 _c
238 78 284 62 344 62 _c
378 62 412 66 444 74 _c
476 82 509 95 541 113 _c
541 28 _l
509 14 476 3 442 -3 _c
408 -9 373 -13 339 -13 _c
251 -13 182 12 131 62 _c
80 112 55 181 55 268 _c
55 357 79 428 127 481 _c
175 533 241 560 323 560 _c
397 560 455 536 498 489 _c
}_e{540 441 562 377 562 296 _c
472 322 _m
471 371 457 410 431 440 _c
404 469 368 484 324 484 _c
274 484 234 469 204 441 _c
174 413 156 373 152 322 _c
472 322 _l
_cl}_e}_d
/g{{635 0 55 -207 544 560 _sc
454 280 _m
454 344 440 395 414 431 _c
387 467 349 485 301 485 _c
253 485 215 467 188 431 _c
161 395 148 344 148 280 _c
148 215 161 165 188 129 _c
215 93 253 75 301 75 _c
349 75 387 93 414 129 _c
440 165 454 215 454 280 _c
544 68 _m
544 -24 523 -93 482 -139 _c
440 -184 377 -207 292 -207 _c
260 -207 231 -204 203 -200 _c
175 -195 147 -188 121 -178 _c
}_e{121 -91 _l
147 -105 173 -115 199 -122 _c
225 -129 251 -133 278 -133 _c
336 -133 380 -117 410 -87 _c
439 -56 454 -10 454 52 _c
454 96 _l
435 64 411 40 382 24 _c
353 8 319 0 279 0 _c
211 0 157 25 116 76 _c
75 127 55 195 55 280 _c
55 364 75 432 116 483 _c
157 534 211 560 279 560 _c
319 560 353 552 382 536 _c
411 520 435 496 454 464 _c
454 547 _l
544 547 _l
}_e{544 68 _l
_cl}_e}_d
/h{634 0 91 0 549 760 _sc
549 330 _m
549 0 _l
459 0 _l
459 327 _l
459 379 448 417 428 443 _c
408 469 378 482 338 482 _c
289 482 251 466 223 435 _c
195 404 181 362 181 309 _c
181 0 _l
91 0 _l
91 760 _l
181 760 _l
181 462 _l
202 494 227 519 257 535 _c
286 551 320 560 358 560 _c
420 560 468 540 500 501 _c
532 462 549 405 549 330 _c
_cl}_d
/i{278 0 94 0 184 760 _sc
94 547 _m
184 547 _l
184 0 _l
94 0 _l
94 547 _l
94 760 _m
184 760 _l
184 646 _l
94 646 _l
94 760 _l
_cl}_d
/j{278 0 -17 -207 184 760 _sc
94 547 _m
184 547 _l
184 -9 _l
184 -78 170 -128 144 -160 _c
117 -191 74 -207 16 -207 _c
-17 -207 _l
-17 -131 _l
6 -131 _l
40 -131 63 -123 75 -107 _c
87 -91 94 -58 94 -9 _c
94 547 _l
94 760 _m
184 760 _l
184 646 _l
94 646 _l
94 760 _l
_cl}_d
/k{579 0 91 0 576 760 _sc
91 760 _m
181 760 _l
181 311 _l
449 547 _l
564 547 _l
274 291 _l
576 0 _l
459 0 _l
181 267 _l
181 0 _l
91 0 _l
91 760 _l
_cl}_d
/l{278 0 94 0 184 760 _sc
94 760 _m
184 760 _l
184 0 _l
94 0 _l
94 760 _l
_cl}_d
/n{634 0 91 0 549 560 _sc
549 330 _m
549 0 _l
459 0 _l
459 327 _l
459 379 448 417 428 443 _c
408 469 378 482 338 482 _c
289 482 251 466 223 435 _c
195 404 181 362 181 309 _c
181 0 _l
91 0 _l
91 547 _l
181 547 _l
181 462 _l
202 494 227 519 257 535 _c
286 551 320 560 358 560 _c
420 560 468 540 500 501 _c
532 462 549 405 549 330 _c
_cl}_d
/o{612 0 55 -13 557 560 _sc
306 484 _m
258 484 220 465 192 427 _c
164 389 150 338 150 273 _c
150 207 163 156 191 118 _c
219 80 257 62 306 62 _c
354 62 392 80 420 118 _c
448 156 462 207 462 273 _c
462 337 448 389 420 427 _c
392 465 354 484 306 484 _c
306 560 _m
384 560 445 534 490 484 _c
534 433 557 363 557 273 _c
557 183 534 113 490 63 _c
445 12 384 -13 306 -13 _c
227 -13 165 12 121 63 _c
77 113 55 183 55 273 _c
55 363 77 433 121 484 _c
165 534 227 560 306 560 _c
_cl}_d
/p{{635 0 91 -207 580 560 _sc
181 82 _m
181 -207 _l
91 -207 _l
91 547 _l
181 547 _l
181 464 _l
199 496 223 520 252 536 _c
281 552 316 560 356 560 _c
422 560 476 533 518 481 _c
559 428 580 359 580 273 _c
580 187 559 117 518 65 _c
476 13 422 -13 356 -13 _c
316 -13 281 -5 252 10 _c
223 25 199 49 181 82 _c
487 273 _m
487 339 473 390 446 428 _c
418 466 381 485 334 485 _c
}_e{286 485 249 466 222 428 _c
194 390 181 339 181 273 _c
181 207 194 155 222 117 _c
249 79 286 61 334 61 _c
381 61 418 79 446 117 _c
473 155 487 207 487 273 _c
_cl}_e}_d
/r{411 0 91 0 411 560 _sc
411 463 _m
401 469 390 473 378 476 _c
366 478 353 480 339 480 _c
288 480 249 463 222 430 _c
194 397 181 350 181 288 _c
181 0 _l
91 0 _l
91 547 _l
181 547 _l
181 462 _l
199 495 224 520 254 536 _c
284 552 321 560 365 560 _c
371 560 378 559 386 559 _c
393 558 401 557 411 555 _c
411 463 _l
_cl}_d
/s{{521 0 54 -13 472 560 _sc
443 531 _m
443 446 _l
417 458 391 468 364 475 _c
336 481 308 485 279 485 _c
234 485 200 478 178 464 _c
156 450 145 430 145 403 _c
145 382 153 366 169 354 _c
185 342 217 330 265 320 _c
296 313 _l
360 299 405 279 432 255 _c
458 230 472 195 472 151 _c
472 100 452 60 412 31 _c
372 1 316 -13 246 -13 _c
216 -13 186 -10 154 -5 _c
}_e{122 0 89 8 54 20 _c
54 113 _l
87 95 120 82 152 74 _c
184 65 216 61 248 61 _c
290 61 323 68 346 82 _c
368 96 380 117 380 144 _c
380 168 371 187 355 200 _c
339 213 303 226 247 238 _c
216 245 _l
160 257 119 275 95 299 _c
70 323 58 356 58 399 _c
58 450 76 490 112 518 _c
148 546 200 560 268 560 _c
301 560 332 557 362 552 _c
391 547 418 540 443 531 _c
}_e{_cl}_e}_d
/t{392 0 27 0 368 702 _sc
183 702 _m
183 547 _l
368 547 _l
368 477 _l
183 477 _l
183 180 _l
183 135 189 106 201 94 _c
213 81 238 75 276 75 _c
368 75 _l
368 0 _l
276 0 _l
206 0 158 13 132 39 _c
106 65 93 112 93 180 _c
93 477 _l
27 477 _l
27 547 _l
93 547 _l
93 702 _l
183 702 _l
_cl}_d
/u{634 0 85 -13 543 560 _sc
85 216 _m
85 547 _l
175 547 _l
175 219 _l
175 167 185 129 205 103 _c
225 77 255 64 296 64 _c
344 64 383 79 411 110 _c
439 141 453 183 453 237 _c
453 547 _l
543 547 _l
543 0 _l
453 0 _l
453 84 _l
431 50 405 26 377 10 _c
348 -5 315 -13 277 -13 _c
214 -13 166 6 134 45 _c
101 83 85 140 85 216 _c
311 560 _m
311 560 _l
_cl}_d
/w{818 0 42 0 776 547 _sc
42 547 _m
132 547 _l
244 120 _l
356 547 _l
462 547 _l
574 120 _l
686 547 _l
776 547 _l
633 0 _l
527 0 _l
409 448 _l
291 0 _l
185 0 _l
42 547 _l
_cl}_d
end readonly def

/BuildGlyph
 {exch begin
 CharStrings exch
 2 copy known not{pop /.notdef}if
 true 3 1 roll get exec
 end}_d

/BuildChar {
 1 index /Encoding get exch get
 1 index /BuildGlyph get exec
}_d

FontName currentdict end definefont pop
end
%%EndProlog
mpldict begin
-48.664 145.758 translate
709.328 500.485 0 0 clipbox
gsave
0 0 m
709.327527 0 l
709.327527 500.484875 l
0 500.484875 l
cl
1.000 setgray
fill
grestore
gsave
42.765625 37.296875 m
695.625625 37.296875 l
695.625625 488.484875 l
42.765625 488.484875 l
cl
1.000 setgray
fill
grestore
1.000 setlinewidth
1 setlinejoin
0 setlinecap
[] 0 setdash
0.150 setgray
gsave
/o {
gsave
newpath
translate
1.0 setlinewidth
1 setlinejoin
0 setlinecap
0 0 m
0 -4.8 l

gsave
0.150 setgray
fill
grestore
stroke
grestore
} bind def
66.1936 37.2969 o
grestore
/DejaVuSans findfont
8.800 scalefont
setfont
gsave
55.006115 22.309375 translate
0.000000 rotate
0.000000 0.000000 m /one glyphshow
5.596832 0.000000 m /eight glyphshow
11.193665 0.000000 m /four glyphshow
16.790497 0.000000 m /zero glyphshow
grestore
gsave
/o {
gsave
newpath
translate
1.0 setlinewidth
1 setlinejoin
0 setlinecap
0 0 m
0 -4.8 l

gsave
0.150 setgray
fill
grestore
stroke
grestore
} bind def
128.668 37.2969 o
grestore
gsave
117.480757 22.309375 translate
0.000000 rotate
0.000000 0.000000 m /one glyphshow
5.596832 0.000000 m /eight glyphshow
11.193665 0.000000 m /five glyphshow
16.790497 0.000000 m /zero glyphshow
grestore
gsave
/o {
gsave
newpath
translate
1.0 setlinewidth
1 setlinejoin
0 setlinecap
0 0 m
0 -4.8 l

gsave
0.150 setgray
fill
grestore
stroke
grestore
} bind def
191.143 37.2969 o
grestore
gsave
179.955398 22.309375 translate
0.000000 rotate
0.000000 0.000000 m /one glyphshow
5.596832 0.000000 m /eight glyphshow
11.193665 0.000000 m /six glyphshow
16.790497 0.000000 m /zero glyphshow
grestore
gsave
/o {
gsave
newpath
translate
1.0 setlinewidth
1 setlinejoin
0 setlinecap
0 0 m
0 -4.8 l

gsave
0.150 setgray
fill
grestore
stroke
grestore
} bind def
253.618 37.2969 o
grestore
gsave
242.430039 22.309375 translate
0.000000 rotate
0.000000 0.000000 m /one glyphshow
5.596832 0.000000 m /eight glyphshow
11.193665 0.000000 m /seven glyphshow
16.790497 0.000000 m /zero glyphshow
grestore
gsave
/o {
gsave
newpath
translate
1.0 setlinewidth
1 setlinejoin
0 setlinecap
0 0 m
0 -4.8 l

gsave
0.150 setgray
fill
grestore
stroke
grestore
} bind def
316.092 37.2969 o
grestore
gsave
304.904680 22.309375 translate
0.000000 rotate
0.000000 0.000000 m /one glyphshow
5.596832 0.000000 m /eight glyphshow
11.193665 0.000000 m /eight glyphshow
16.790497 0.000000 m /zero glyphshow
grestore
gsave
/o {
gsave
newpath
translate
1.0 setlinewidth
1 setlinejoin
0 setlinecap
0 0 m
0 -4.8 l

gsave
0.150 setgray
fill
grestore
stroke
grestore
} bind def
378.567 37.2969 o
grestore
gsave
367.379321 22.309375 translate
0.000000 rotate
0.000000 0.000000 m /one glyphshow
5.596832 0.000000 m /eight glyphshow
11.193665 0.000000 m /nine glyphshow
16.790497 0.000000 m /zero glyphshow
grestore
gsave
/o {
gsave
newpath
translate
1.0 setlinewidth
1 setlinejoin
0 setlinecap
0 0 m
0 -4.8 l

gsave
0.150 setgray
fill
grestore
stroke
grestore
} bind def
441.041 37.2969 o
grestore
gsave
429.853962 22.309375 translate
0.000000 rotate
0.000000 0.000000 m /one glyphshow
5.596832 0.000000 m /nine glyphshow
11.193665 0.000000 m /zero glyphshow
16.790497 0.000000 m /zero glyphshow
grestore
gsave
/o {
gsave
newpath
translate
1.0 setlinewidth
1 setlinejoin
0 setlinecap
0 0 m
0 -4.8 l

gsave
0.150 setgray
fill
grestore
stroke
grestore
} bind def
503.516 37.2969 o
grestore
gsave
492.328603 22.309375 translate
0.000000 rotate
0.000000 0.000000 m /one glyphshow
5.596832 0.000000 m /nine glyphshow
11.193665 0.000000 m /one glyphshow
16.790497 0.000000 m /zero glyphshow
grestore
gsave
/o {
gsave
newpath
translate
1.0 setlinewidth
1 setlinejoin
0 setlinecap
0 0 m
0 -4.8 l

gsave
0.150 setgray
fill
grestore
stroke
grestore
} bind def
565.991 37.2969 o
grestore
gsave
554.803245 22.309375 translate
0.000000 rotate
0.000000 0.000000 m /one glyphshow
5.596832 0.000000 m /nine glyphshow
11.193665 0.000000 m /two glyphshow
16.790497 0.000000 m /zero glyphshow
grestore
gsave
/o {
gsave
newpath
translate
1.0 setlinewidth
1 setlinejoin
0 setlinecap
0 0 m
0 -4.8 l

gsave
0.150 setgray
fill
grestore
stroke
grestore
} bind def
628.465 37.2969 o
grestore
gsave
617.277886 22.309375 translate
0.000000 rotate
0.000000 0.000000 m /one glyphshow
5.596832 0.000000 m /nine glyphshow
11.193665 0.000000 m /three glyphshow
16.790497 0.000000 m /zero glyphshow
grestore
gsave
/o {
gsave
newpath
translate
1.0 setlinewidth
1 setlinejoin
0 setlinecap
0 0 m
0 -4.8 l

gsave
0.150 setgray
fill
grestore
stroke
grestore
} bind def
690.94 37.2969 o
grestore
gsave
679.752527 22.309375 translate
0.000000 rotate
0.000000 0.000000 m /one glyphshow
5.596832 0.000000 m /nine glyphshow
11.193665 0.000000 m /four glyphshow
16.790497 0.000000 m /zero glyphshow
grestore
/DejaVuSans findfont
9.600 scalefont
setfont
gsave
360.015938 9.200000 translate
0.000000 rotate
0.000000 0.000000 m /j glyphshow
2.665451 0.000000 m /a glyphshow
8.544434 0.000000 m /a glyphshow
14.423416 0.000000 m /r glyphshow
grestore
gsave
/o {
gsave
newpath
translate
1.0 setlinewidth
1 setlinejoin
0 setlinecap
0 0 m
-4.8 0 l

gsave
0.150 setgray
fill
grestore
stroke
grestore
} bind def
42.7656 42.1379 o
grestore
/DejaVuSans findfont
8.800 scalefont
setfont
gsave
20.481250 38.794200 translate
0.000000 rotate
0.000000 0.000000 m /zero glyphshow
5.596832 0.000000 m /period glyphshow
8.393097 0.000000 m /zero glyphshow
grestore
gsave
/o {
gsave
newpath
translate
1.0 setlinewidth
1 setlinejoin
0 setlinecap
0 0 m
-4.8 0 l

gsave
0.150 setgray
fill
grestore
stroke
grestore
} bind def
42.7656 127.35 o
grestore
gsave
20.481250 124.005869 translate
0.000000 rotate
0.000000 0.000000 m /zero glyphshow
5.596832 0.000000 m /period glyphshow
8.393097 0.000000 m /one glyphshow
grestore
gsave
/o {
gsave
newpath
translate
1.0 setlinewidth
1 setlinejoin
0 setlinecap
0 0 m
-4.8 0 l

gsave
0.150 setgray
fill
grestore
stroke
grestore
} bind def
42.7656 212.561 o
grestore
gsave
20.481250 209.217538 translate
0.000000 rotate
0.000000 0.000000 m /zero glyphshow
5.596832 0.000000 m /period glyphshow
8.393097 0.000000 m /two glyphshow
grestore
gsave
/o {
gsave
newpath
translate
1.0 setlinewidth
1 setlinejoin
0 setlinecap
0 0 m
-4.8 0 l

gsave
0.150 setgray
fill
grestore
stroke
grestore
} bind def
42.7656 297.773 o
grestore
gsave
20.481250 294.429208 translate
0.000000 rotate
0.000000 0.000000 m /zero glyphshow
5.596832 0.000000 m /period glyphshow
8.393097 0.000000 m /three glyphshow
grestore
gsave
/o {
gsave
newpath
translate
1.0 setlinewidth
1 setlinejoin
0 setlinecap
0 0 m
-4.8 0 l

gsave
0.150 setgray
fill
grestore
stroke
grestore
} bind def
42.7656 382.985 o
grestore
gsave
20.481250 379.640877 translate
0.000000 rotate
0.000000 0.000000 m /zero glyphshow
5.596832 0.000000 m /period glyphshow
8.393097 0.000000 m /four glyphshow
grestore
gsave
/o {
gsave
newpath
translate
1.0 setlinewidth
1 setlinejoin
0 setlinecap
0 0 m
-4.8 0 l

gsave
0.150 setgray
fill
grestore
stroke
grestore
} bind def
42.7656 468.196 o
grestore
gsave
20.481250 464.852546 translate
0.000000 rotate
0.000000 0.000000 m /zero glyphshow
5.596832 0.000000 m /period glyphshow
8.393097 0.000000 m /five glyphshow
grestore
/DejaVuSans findfont
9.600 scalefont
setfont
gsave
14.481250 240.812750 translate
90.000000 rotate
0.000000 0.000000 m /p glyphshow
6.089783 0.000000 m /r glyphshow
10.034088 0.000000 m /o glyphshow
15.903702 0.000000 m /p glyphshow
21.993484 0.000000 m /o glyphshow
27.863098 0.000000 m /r glyphshow
31.807404 0.000000 m /t glyphshow
35.569016 0.000000 m /i glyphshow
38.234467 0.000000 m /e glyphshow
grestore
1.200 setlinewidth
[4.8 1.8] 0 setdash
0.004 0.451 0.698 setrgbcolor
gsave
652.9 451.2 42.77 37.3 clipbox
72.44108 406.940737 m
78.688544 386.363725 l
84.936008 378.475755 l
91.183472 384.645394 l
97.430936 407.532908 l
103.6784 431.992405 l
109.925864 439.489202 l
116.173328 410.987507 l
122.420792 383.867662 l
128.668257 365.117099 l
134.915721 377.758817 l
141.163185 390.37439 l
147.410649 405.972346 l
153.658113 415.274644 l
159.905577 416.771232 l
166.153041 402.051999 l
172.400505 376.198904 l
178.647969 364.54631 l
184.895434 390.673143 l
191.142898 434.55185 l
197.390362 467.97633 l
203.637826 462.989007 l
209.88529 425.399942 l
216.132754 389.118898 l
222.380218 357.019189 l
228.627682 351.964416 l
234.875147 337.079902 l
241.122611 327.542654 l
247.370075 322.495114 l
253.617539 332.879874 l
259.865003 357.021705 l
266.112467 369.572738 l
272.359931 370.852243 l
278.607395 358.216802 l
284.854859 347.410189 l
291.102324 352.947675 l
297.349788 365.045748 l
303.597252 384.762824 l
309.844716 388.960937 l
316.09218 390.544832 l
322.339644 378.58861 l
328.587108 371.757835 l
334.834572 363.713456 l
341.082036 364.487508 l
347.329501 370.116005 l
353.576965 379.702046 l
359.824429 376.188198 l
366.071893 364.574897 l
372.319357 358.562451 l
378.566821 377.94871 l
384.814285 399.394473 l
391.061749 403.06221 l
397.309214 387.796793 l
403.556678 368.703847 l
409.804142 346.751076 l
416.051606 322.355914 l
422.29907 298.617576 l
428.546534 291.33219 l
434.793998 288.411235 l
441.041462 291.100324 l
447.288926 289.069615 l
453.536391 284.067661 l
459.783855 277.766795 l
466.031319 269.837628 l
472.278783 266.067699 l
478.526247 259.523205 l
484.773711 258.285711 l
491.021175 260.588363 l
497.268639 273.227717 l
503.516103 286.440617 l
509.763568 294.86791 l
516.011032 288.930237 l
522.258496 268.656236 l
528.50596 256.425398 l
534.753424 247.881147 l
541.000888 250.742083 l
547.248352 238.642911 l
553.495816 226.902455 l
559.743281 209.927852 l
565.990745 204.611565 l
572.238209 204.817884 l
578.485673 219.284738 l
584.733137 238.973818 l
590.980601 263.201783 l
597.228065 277.195356 l
603.475529 274.921224 l
609.722993 259.768176 l
615.970458 241.475809 l
622.217922 240.94908 l
628.465386 251.43791 l
634.71285 268.781721 l
640.960314 270.381408 l
647.207778 272.75642 l
653.455242 273.207689 l
659.702706 289.896221 l
665.95017 297.850544 l
stroke
grestore
[3.6 1.2 1.8 1.2] 0 setdash
0.871 0.561 0.020 setrgbcolor
gsave
652.9 451.2 42.77 37.3 clipbox
72.44108 72.581992 m
78.688544 72.840736 l
84.936008 67.762707 l
91.183472 66.144691 l
97.430936 65.24155 l
103.6784 70.258859 l
109.925864 74.25044 l
116.173328 78.530793 l
122.420792 75.761722 l
128.668257 76.091058 l
134.915721 73.268993 l
141.163185 75.717595 l
147.410649 75.62555 l
153.658113 76.748517 l
159.905577 75.56563 l
166.153041 70.750726 l
172.400505 66.704909 l
178.647969 66.215316 l
184.895434 66.865266 l
191.142898 67.490348 l
197.390362 63.411655 l
203.637826 62.144526 l
209.88529 63.444574 l
216.132754 66.060604 l
222.380218 68.93762 l
228.627682 69.35208 l
234.875147 69.099347 l
241.122611 69.042032 l
247.370075 66.570569 l
253.617539 67.365264 l
259.865003 67.075038 l
266.112467 72.978279 l
272.359931 74.40494 l
278.607395 75.822446 l
284.854859 72.934436 l
291.102324 72.313562 l
297.349788 70.134349 l
303.597252 67.976462 l
309.844716 65.27598 l
316.09218 66.02845 l
322.339644 66.363578 l
328.587108 67.226152 l
334.834572 63.590744 l
341.082036 60.758963 l
347.329501 57.80542 l
353.576965 58.121271 l
359.824429 59.219278 l
366.071893 62.61022 l
372.319357 63.260063 l
378.566821 62.6439 l
384.814285 60.293772 l
391.061749 60.364073 l
397.309214 61.799972 l
403.556678 62.428893 l
409.804142 65.953881 l
416.051606 68.645096 l
422.29907 71.273683 l
428.546534 67.436172 l
434.793998 63.987861 l
441.041462 63.016495 l
447.288926 65.746531 l
453.536391 69.535636 l
459.783855 70.550683 l
466.031319 73.391626 l
472.278783 78.599957 l
478.526247 82.712737 l
484.773711 83.088997 l
491.021175 74.909786 l
497.268639 68.890979 l
503.516103 62.801495 l
509.763568 61.997023 l
516.011032 60.42538 l
522.258496 59.490023 l
528.50596 59.00326 l
534.753424 59.151046 l
541.000888 63.88259 l
547.248352 68.080509 l
553.495816 72.155145 l
559.743281 70.058613 l
565.990745 66.901852 l
572.238209 67.569454 l
578.485673 71.725234 l
584.733137 77.617983 l
590.980601 76.720145 l
597.228065 72.446138 l
603.475529 65.305408 l
609.722993 62.956451 l
615.970458 62.488867 l
622.217922 63.192069 l
628.465386 61.179568 l
634.71285 59.114133 l
640.960314 58.828184 l
647.207778 59.035828 l
653.455242 60.438028 l
659.702706 63.758099 l
665.95017 67.016318 l
stroke
grestore
[6 1.2 1.2 1.2] 0 setdash
0.008 0.620 0.451 setrgbcolor
gsave
652.9 451.2 42.77 37.3 clipbox
72.44108 209.557768 m
78.688544 212.145844 l
84.936008 211.634739 l
91.183472 213.788703 l
97.430936 223.710404 l
103.6784 241.763826 l
109.925864 275.398865 l
116.173328 322.308715 l
122.420792 373.949429 l
128.668257 398.5956 l
134.915721 383.586467 l
141.163185 349.031133 l
147.410649 329.51926 l
153.658113 339.705534 l
159.905577 366.41623 l
166.153041 394.371273 l
172.400505 414.798214 l
178.647969 416.503512 l
184.895434 393.900146 l
191.142898 357.259198 l
197.390362 335.281295 l
203.637826 338.30931 l
209.88529 367.237794 l
216.132754 388.939149 l
222.380218 404.529099 l
228.627682 402.201307 l
234.875147 400.627518 l
241.122611 399.524086 l
247.370075 394.881856 l
253.617539 394.580583 l
259.865003 390.514936 l
266.112467 387.363156 l
272.359931 378.098486 l
278.607395 372.200119 l
284.854859 375.628109 l
291.102324 373.633958 l
297.349788 355.466756 l
303.597252 323.404869 l
309.844716 298.354622 l
316.09218 286.244322 l
322.339644 287.40802 l
328.587108 297.254699 l
334.834572 314.55906 l
341.082036 317.445519 l
347.329501 312.163936 l
353.576965 297.004171 l
359.824429 302.773683 l
366.071893 299.20337 l
372.319357 290.65286 l
378.566821 259.280644 l
384.814285 236.500171 l
391.061749 230.163027 l
397.309214 239.506513 l
403.556678 250.417856 l
409.804142 247.175086 l
416.051606 246.164592 l
422.29907 249.202143 l
428.546534 263.720252 l
434.793998 279.679862 l
441.041462 284.130189 l
447.288926 285.328538 l
453.536391 276.034027 l
459.783855 278.853015 l
466.031319 277.041312 l
472.278783 278.404392 l
478.526247 276.495146 l
484.773711 284.206163 l
491.021175 291.132205 l
497.268639 297.640437 l
503.516103 291.3894 l
509.763568 280.591631 l
516.011032 265.240421 l
522.258496 245.249418 l
528.50596 237.47679 l
534.753424 238.972476 l
541.000888 256.633066 l
547.248352 273.55424 l
553.495816 281.232466 l
559.743281 290.045031 l
565.990745 284.330023 l
572.238209 270.82086 l
578.485673 242.221812 l
584.733137 222.146876 l
590.980601 225.7445 l
597.228065 243.691079 l
603.475529 273.86495 l
609.722993 297.770873 l
615.970458 314.881179 l
622.217922 309.811209 l
628.465386 283.186834 l
634.71285 265.757489 l
640.960314 266.236488 l
647.207778 281.871604 l
653.455242 274.364208 l
659.702706 252.927731 l
665.95017 239.627764 l
stroke
grestore
[1.2 1.2] 0 setdash
0.835 0.369 0.000 setrgbcolor
gsave
652.9 451.2 42.77 37.3 clipbox
72.44108 300.112104 m
78.688544 308.490572 l
84.936008 309.873688 l
91.183472 307.991546 l
97.430936 287.193253 l
103.6784 250.702196 l
109.925864 206.775697 l
116.173328 178.979936 l
122.420792 156.826221 l
128.668257 145.659911 l
134.915721 145.433276 l
141.163185 154.61092 l
147.410649 159.546463 l
153.658113 141.962606 l
159.905577 125.823324 l
166.153041 119.238271 l
172.400505 129.495851 l
178.647969 135.264531 l
184.895434 132.694087 l
191.142898 132.006055 l
197.390362 131.90902 l
203.637826 139.826483 l
209.88529 145.274954 l
216.132754 153.909651 l
222.380218 164.504004 l
228.627682 169.900341 l
234.875147 183.691832 l
241.122611 189.929662 l
247.370075 197.699105 l
253.617539 187.748524 l
259.865003 175.641693 l
266.112467 168.479869 l
272.359931 177.643602 l
278.607395 186.00823 l
284.854859 187.089259 l
291.102324 175.6211 l
297.349788 179.472996 l
303.597252 190.485963 l
309.844716 210.484576 l
316.09218 222.559738 l
322.339644 238.432483 l
328.587108 246.782112 l
334.834572 246.95537 l
341.082036 246.055044 l
347.329501 242.080652 l
353.576965 240.844291 l
359.824429 234.186004 l
366.071893 247.224061 l
372.319357 266.330494 l
378.566821 285.260112 l
384.814285 292.515366 l
391.061749 299.734975 l
397.309214 305.029305 l
403.556678 312.816799 l
409.804142 329.009745 l
416.051606 349.51771 l
422.29907 367.910269 l
428.546534 366.26569 l
434.793998 356.493237 l
441.041462 348.050794 l
447.288926 344.937403 l
453.536391 357.706903 l
459.783855 362.693588 l
466.031319 376.070641 l
472.278783 376.38529 l
478.526247 384.297737 l
484.773711 372.7407 l
491.021175 361.095418 l
497.268639 336.217782 l
503.516103 328.265701 l
509.763568 332.702732 l
516.011032 358.170767 l
522.258496 381.564484 l
528.50596 383.575631 l
534.753424 370.895449 l
541.000888 371.304105 l
547.248352 387.154891 l
553.495816 410.195811 l
559.743281 416.638424 l
565.990745 428.86778 l
572.238209 438.667554 l
578.485673 442.112712 l
584.733137 424.826177 l
590.980601 390.935139 l
597.228065 368.185323 l
603.475529 355.924488 l
609.722993 360.662084 l
615.970458 360.185633 l
622.217922 362.605862 l
628.465386 374.419536 l
634.71285 379.400406 l
640.960314 379.48485 l
647.207778 357.959714 l
653.455242 359.286112 l
659.702706 358.442468 l
665.95017 366.205927 l
stroke
grestore
1 setlinecap
[] 0 setdash
0.800 0.471 0.737 setrgbcolor
gsave
652.9 451.2 42.77 37.3 clipbox
72.44108 86.377368 m
78.688544 95.02312 l
84.936008 103.963336 l
91.183472 98.592679 l
97.430936 91.154026 l
103.6784 85.122101 l
109.925864 85.849391 l
116.173328 87.845127 l
122.420792 85.835123 l
128.668257 89.307715 l
134.915721 93.110472 l
141.163185 101.196696 l
147.410649 98.399289 l
153.658113 94.441397 l
159.905577 83.422072 l
166.153041 80.987767 l
172.400505 81.215842 l
178.647969 87.698978 l
184.895434 88.319918 l
191.142898 83.751845 l
197.390362 78.614776 l
203.637826 76.292648 l
209.88529 80.149541 l
216.132754 83.069867 l
222.380218 85.76732 l
228.627682 84.569412 l
234.875147 86.059634 l
241.122611 89.412169 l
247.370075 93.592547 l
253.617539 92.880102 l
259.865003 87.89014 l
266.112467 83.177535 l
272.359931 81.63083 l
278.607395 84.724566 l
284.854859 88.553246 l
291.102324 93.606296 l
297.349788 98.039152 l
303.597252 102.330854 l
309.844716 107.334618 l
316.09218 110.307474 l
322.339644 108.022209 l
328.587108 98.377706 l
334.834572 88.842649 l
341.082036 86.548494 l
347.329501 90.588072 l
353.576965 95.474221 l
359.824429 96.736008 l
366.071893 94.682882 l
372.319357 90.335421 l
378.566821 87.178674 l
384.814285 86.229269 l
391.061749 86.99399 l
397.309214 86.890981 l
403.556678 85.435869 l
409.804142 86.064273 l
416.051606 86.774193 l
422.29907 86.302124 l
428.546534 83.616863 l
434.793998 81.580184 l
441.041462 81.547497 l
447.288926 82.25825 l
453.536391 82.994612 l
459.783855 84.716509 l
466.031319 82.877641 l
472.278783 79.327237 l
478.526247 73.561429 l
484.773711 76.590551 l
491.021175 88.17622 l
497.268639 102.034983 l
503.516103 108.589127 l
509.763568 104.725814 l
516.011032 98.617769 l
522.258496 114.328672 l
528.50596 132.060469 l
534.753424 151.448468 l
541.000888 127.378825 l
547.248352 103.707948 l
553.495816 82.950428 l
559.743281 87.795399 l
565.990745 91.880938 l
572.238209 96.245683 l
578.485673 102.078172 l
584.733137 113.255696 l
590.980601 116.923884 l
597.228065 111.142598 l
603.475529 100.006323 l
609.722993 89.732828 l
615.970458 91.243795 l
622.217922 93.963773 l
628.465386 98.796364 l
634.71285 95.763828 l
640.960314 94.568977 l
647.207778 98.589791 l
653.455242 102.678212 l
659.702706 104.453515 l
665.95017 97.955387 l
stroke
grestore
1.000 setlinewidth
0 setlinejoin
2 setlinecap
[] 0 setdash
0.150 setgray
gsave
42.765625 37.296875 m
42.765625 488.484875 l
stroke
grestore
gsave
695.625625 37.296875 m
695.625625 488.484875 l
stroke
grestore
gsave
42.765625 37.296875 m
695.625625 37.296875 l
stroke
grestore
gsave
42.765625 488.484875 m
695.625625 488.484875 l
stroke
grestore
0.800 setlinewidth
0 setlinecap
0.800 setgray
gsave
303.123438 416.86675 m
435.267813 416.86675 l
436.441146 416.86675 437.027813 417.453417 437.027813 418.62675 c
437.027813 482.324875 l
437.027813 483.498208 436.441146 484.084875 435.267813 484.084875 c
303.123438 484.084875 l
301.950104 484.084875 301.363438 483.498208 301.363438 482.324875 c
301.363438 418.62675 l
301.363438 417.453417 301.950104 416.86675 303.123438 416.86675 c
cl
gsave
1.000 setgray
fill
grestore
stroke
grestore
1.200 setlinewidth
1 setlinejoin
[4.8 1.8] 0 setdash
0.004 0.451 0.698 setrgbcolor
gsave
304.883438 476.957375 m
322.483438 476.957375 l
stroke
grestore
0.150 setgray
/DejaVuSans findfont
8.800 scalefont
setfont
gsave
329.523438 473.877375 translate
0.000000 rotate
0.000000 0.000000 m /g glyphshow
5.583954 0.000000 m /e glyphshow
10.996094 0.000000 m /e glyphshow
16.408234 0.000000 m /s glyphshow
20.991364 0.000000 m /t glyphshow
24.440521 0.000000 m /e glyphshow
29.852661 0.000000 m /s glyphshow
34.435791 0.000000 m /w glyphshow
41.630493 0.000000 m /e glyphshow
47.042633 0.000000 m /t glyphshow
50.491791 0.000000 m /e glyphshow
55.903931 0.000000 m /n glyphshow
61.479294 0.000000 m /s glyphshow
66.062424 0.000000 m /c glyphshow
70.898987 0.000000 m /h glyphshow
76.474350 0.000000 m /a glyphshow
81.865005 0.000000 m /p glyphshow
87.448959 0.000000 m /p glyphshow
93.032913 0.000000 m /e glyphshow
98.445053 0.000000 m /n glyphshow
grestore
[3.6 1.2 1.8 1.2] 0 setdash
0.871 0.561 0.020 setrgbcolor
gsave
304.883438 464.04175 m
322.483438 464.04175 l
stroke
grestore
0.150 setgray
gsave
329.523438 460.961750 translate
0.000000 rotate
0.000000 0.000000 m /n glyphshow
5.575363 0.000000 m /a glyphshow
10.966019 0.000000 m /t glyphshow
14.415176 0.000000 m /u glyphshow
19.990540 0.000000 m /u glyphshow
25.565903 0.000000 m /r glyphshow
29.182587 0.000000 m /w glyphshow
36.377289 0.000000 m /e glyphshow
41.789429 0.000000 m /t glyphshow
45.238586 0.000000 m /e glyphshow
50.650726 0.000000 m /n glyphshow
56.226089 0.000000 m /s glyphshow
60.809219 0.000000 m /c glyphshow
65.645782 0.000000 m /h glyphshow
71.221146 0.000000 m /a glyphshow
76.611801 0.000000 m /p glyphshow
82.195755 0.000000 m /p glyphshow
87.779709 0.000000 m /e glyphshow
93.191849 0.000000 m /n glyphshow
grestore
[6 1.2 1.2 1.2] 0 setdash
0.008 0.620 0.451 setrgbcolor
gsave
304.883438 451.126125 m
322.483438 451.126125 l
stroke
grestore
0.150 setgray
gsave
329.523438 448.046125 translate
0.000000 rotate
0.000000 0.000000 m /s glyphshow
4.583130 0.000000 m /o glyphshow
9.965195 0.000000 m /c glyphshow
14.801758 0.000000 m /i glyphshow
17.245804 0.000000 m /a glyphshow
22.636459 0.000000 m /l glyphshow
25.080505 0.000000 m /e glyphshow
30.492645 0.000000 m /space glyphshow
33.288910 0.000000 m /w glyphshow
40.483612 0.000000 m /e glyphshow
45.895752 0.000000 m /t glyphshow
49.344910 0.000000 m /e glyphshow
54.757050 0.000000 m /n glyphshow
60.332413 0.000000 m /s glyphshow
64.915543 0.000000 m /c glyphshow
69.752106 0.000000 m /h glyphshow
75.327469 0.000000 m /a glyphshow
80.718124 0.000000 m /p glyphshow
86.302078 0.000000 m /p glyphshow
91.886032 0.000000 m /e glyphshow
97.298172 0.000000 m /n glyphshow
grestore
[1.2 1.2] 0 setdash
0.835 0.369 0.000 setrgbcolor
gsave
304.883438 438.2105 m
322.483438 438.2105 l
stroke
grestore
0.150 setgray
gsave
329.523438 435.130500 translate
0.000000 rotate
0.000000 0.000000 m /k glyphshow
5.094284 0.000000 m /u glyphshow
10.669647 0.000000 m /n glyphshow
16.245010 0.000000 m /s glyphshow
20.828140 0.000000 m /t glyphshow
24.277298 0.000000 m /space glyphshow
27.073563 0.000000 m /e glyphshow
32.485703 0.000000 m /n glyphshow
38.061066 0.000000 m /space glyphshow
40.857330 0.000000 m /l glyphshow
43.301376 0.000000 m /i glyphshow
45.745422 0.000000 m /t glyphshow
49.194580 0.000000 m /e glyphshow
54.606720 0.000000 m /r glyphshow
58.223404 0.000000 m /a glyphshow
63.614059 0.000000 m /t glyphshow
67.063217 0.000000 m /u glyphshow
72.638580 0.000000 m /u glyphshow
78.213943 0.000000 m /r glyphshow
grestore
1 setlinecap
[] 0 setdash
0.800 0.471 0.737 setrgbcolor
gsave
304.883438 425.294875 m
322.483438 425.294875 l
stroke
grestore
0.150 setgray
gsave
329.523438 422.214875 translate
0.000000 rotate
0.000000 0.000000 m /a glyphshow
5.390656 0.000000 m /n glyphshow
10.966019 0.000000 m /d glyphshow
16.549973 0.000000 m /e glyphshow
21.962112 0.000000 m /r glyphshow
25.578796 0.000000 m /s glyphshow
grestore

end
showpage
